{
  "nameSuffix": [
    {
      "priority": "0",
      "displayName": "Sr",
      "code": "sr"
    },
    {
      "priority": "1",
      "displayName": "Jr",
      "code": "jr"
    },
    {
      "priority": "2",
      "displayName": "II",
      "code": "c_II"
    },
    {
      "priority": "3",
      "displayName": "III",
      "code": "c_III"
    },
    {
      "priority": "4",
      "displayName": "IV",
      "code": "c_IV"
    },
    {
      "priority": "5",
      "displayName": "V",
      "code": "c_V"
    }
  ],
  "vehicleUsage": [
    {
      "priority": "0",
      "displayName": "Commute to work or school (within the state)",
      "code": "commuting"
    },
    {
      "priority": "1",
      "displayName": "Pleasure",
      "code": "pleasure"
    },
    {
      "priority": "2",
      "displayName": "Business",
      "code": "acceptable_business_use"
    },
    {
      "priority": "3",
      "displayName": "Artisan",
      "code": "artisan_use"
    },
    {
      "priority": "4",
      "displayName": "Farming",
      "code": "farm"
    },
    {
      "priority": "5",
      "displayName": "Commute to work or school (outside the state)",
      "code": "out_of_state_commute"
    }
  ],
  "leaseOrRent": [
    {
      "priority": "0",
      "displayName": "Own and make payments",
      "code": "ownAndPay"
    },
    {
      "priority": "1",
      "displayName": "Own and do not make payments",
      "code": "own"
    },
    {
      "priority": "2",
      "displayName": "Lease",
      "code": "lease"
    }
  ],
  "state": [
    {
      "priority": "0",
      "displayName": "Alabama",
      "code": "AL"
    },
    {
      "priority": "1",
      "displayName": "Alaska",
      "code": "AK"
    },
    {
      "priority": "2",
      "displayName": "Arizona",
      "code": "AZ"
    },
    {
      "priority": "3",
      "displayName": "Arkansas",
      "code": "AR"
    },
    {
      "priority": "4",
      "displayName": "California",
      "code": "CA"
    },
    {
      "priority": "5",
      "displayName": "Colorado",
      "code": "CO"
    },
    {
      "priority": "6",
      "displayName": "Connecticut",
      "code": "CT"
    },
    {
      "priority": "7",
      "displayName": "Delaware",
      "code": "DE"
    },
    {
      "priority": "8",
      "displayName": "District of Columbia",
      "code": "DC"
    },
    {
      "priority": "9",
      "displayName": "Florida",
      "code": "FL"
    },
    {
      "priority": "10",
      "displayName": "Georgia",
      "code": "GA"
    },
    {
      "priority": "11",
      "displayName": "Hawaii",
      "code": "HI"
    },
    {
      "priority": "12",
      "displayName": "Idaho",
      "code": "ID"
    },
    {
      "priority": "13",
      "displayName": "Illinois",
      "code": "IL"
    },
    {
      "priority": "14",
      "displayName": "Indiana",
      "code": "IN"
    },
    {
      "priority": "15",
      "displayName": "Iowa",
      "code": "IA"
    },
    {
      "priority": "16",
      "displayName": "Kansas",
      "code": "KS"
    },
    {
      "priority": "17",
      "displayName": "Kentucky",
      "code": "KY"
    },
    {
      "priority": "18",
      "displayName": "Louisiana",
      "code": "LA"
    },
    {
      "priority": "19",
      "displayName": "Maine",
      "code": "ME"
    },
    {
      "priority": "20",
      "displayName": "Maryland",
      "code": "MD"
    },
    {
      "priority": "21",
      "displayName": "Massachusetts",
      "code": "MA"
    },
    {
      "priority": "22",
      "displayName": "Michigan",
      "code": "MI"
    },
    {
      "priority": "23",
      "displayName": "Minnesota",
      "code": "MN"
    },
    {
      "priority": "24",
      "displayName": "Mississippi",
      "code": "MS"
    },
    {
      "priority": "25",
      "displayName": "Missouri",
      "code": "MO"
    },
    {
      "priority": "26",
      "displayName": "Montana",
      "code": "MT"
    },
    {
      "priority": "27",
      "displayName": "Nebraska",
      "code": "NE"
    },
    {
      "priority": "28",
      "displayName": "Nevada",
      "code": "NV"
    },
    {
      "priority": "29",
      "displayName": "New Hampshire",
      "code": "NH"
    },
    {
      "priority": "30",
      "displayName": "New Jersey",
      "code": "NJ"
    },
    {
      "priority": "31",
      "displayName": "New Mexico",
      "code": "NM"
    },
    {
      "priority": "32",
      "displayName": "New York",
      "code": "NY"
    },
    {
      "priority": "33",
      "displayName": "North Carolina",
      "code": "NC"
    },
    {
      "priority": "34",
      "displayName": "North Dakota",
      "code": "ND"
    },
    {
      "priority": "35",
      "displayName": "Ohio",
      "code": "OH"
    },
    {
      "priority": "36",
      "displayName": "Oklahoma",
      "code": "OK"
    },
    {
      "priority": "37",
      "displayName": "Oregon",
      "code": "OR"
    },
    {
      "priority": "38",
      "displayName": "Pennsylvania",
      "code": "PA"
    },
    {
      "priority": "39",
      "displayName": "Puerto Rico",
      "code": "PR"
    },
    {
      "priority": "40",
      "displayName": "Rhode Island",
      "code": "RI"
    },
    {
      "priority": "41",
      "displayName": "South Carolina",
      "code": "SC"
    },
    {
      "priority": "42",
      "displayName": "South Dakota",
      "code": "SD"
    },
    {
      "priority": "43",
      "displayName": "Tennessee",
      "code": "TN"
    },
    {
      "priority": "44",
      "displayName": "Texas",
      "code": "TX"
    },
    {
      "priority": "45",
      "displayName": "Utah",
      "code": "UT"
    },
    {
      "priority": "46",
      "displayName": "Vermont",
      "code": "VT"
    },
    {
      "priority": "47",
      "displayName": "Virginia",
      "code": "VA"
    },
    {
      "priority": "48",
      "displayName": "Washington",
      "code": "WA"
    },
    {
      "priority": "49",
      "displayName": "West Virginia",
      "code": "WV"
    },
    {
      "priority": "50",
      "displayName": "Wisconsin",
      "code": "WI"
    },
    {
      "priority": "51",
      "displayName": "Wyoming",
      "code": "WY"
    }
  ],
  "paAntiTheftEquipment": [
    {
      "priority": "0",
      "displayName": "Alarm",
      "code": "1"
    },
    {
      "priority": "1",
      "displayName": "Manual Disabling Device",
      "code": "2"
    },
    {
      "priority": "2",
      "displayName": "Automatic Disabling Device",
      "code": "3"
    },
    {
      "priority": "3",
      "displayName": "Lo Jack",
      "code": "5"
    },
    {
      "priority": "4",
      "displayName": "Teletrac",
      "code": "6"
    },
    {
      "priority": "5",
      "displayName": "VIN Etching",
      "code": "7"
    }
  ],
  "nonFactoryEquipment": [
    {
      "priority": "0",
      "displayName": "Enhanced audio or stereo",
      "code": "stereo_sound"
    },
    {
      "priority": "1",
      "displayName": "Rims",
      "code": "rims"
    },
    {
      "priority": "2",
      "displayName": "Custom paint",
      "code": "paint"
    },
    {
      "priority": "3",
      "displayName": "TV/DVD/Game Console",
      "code": "tv_dvd_game"
    },
    {
      "priority": "4",
      "displayName": "Camper or shell",
      "code": "camper_shell"
    },
    {
      "priority": "5",
      "displayName": "Other",
      "code": "other"
    }
  ],
  "numOfDaysPerWeek": [
    {
      "priority": "0",
      "displayName": "1",
      "code": "1"
    },
    {
      "priority": "1",
      "displayName": "2",
      "code": "2"
    },
    {
      "priority": "2",
      "displayName": "3",
      "code": "3"
    },
    {
      "priority": "3",
      "displayName": "4",
      "code": "4"
    },
    {
      "priority": "4",
      "displayName": "5",
      "code": "5"
    },
    {
      "priority": "5",
      "displayName": "6",
      "code": "6"
    },
    {
      "priority": "6",
      "displayName": "7",
      "code": "7"
    }
  ],
  "relationship": [
    {
      "priority": "0",
      "displayName": "Spouse",
      "code": "spouse"
    },
    {
      "priority": "1",
      "displayName": "Domestic Partner",
      "code": "partner"
    },
    {
      "priority": "2",
      "displayName": "Child",
      "code": "child"
    },
    {
      "priority": "3",
      "displayName": "Relative",
      "code": "relative"
    },
    {
      "priority": "4",
      "displayName": "Roommate",
      "code": "roommate"
    },
    {
      "priority": "5",
      "displayName": "Other",
      "code": "other"
    }
  ],
  "maritalStatus": [
    {
      "priority": "0",
      "displayName": "Married",
      "code": "M"
    },
    {
      "priority": "1",
      "displayName": "Single",
      "code": "S"
    },
    {
      "priority": "2",
      "displayName": "Widowed",
      "code": "W"
    },
    {
      "priority": "3",
      "displayName": "Divorced",
      "code": "D"
    },
    {
      "priority": "4",
      "displayName": "Separated",
      "code": "P"
    },
    {
      "priority": "5",
      "displayName": "Domestic Partnership",
      "code": "C"
    }
  ],
  "licenseStatus": [
    {
      "priority": "0",
      "displayName": "Valid",
      "code": "valid"
    },
    {
      "priority": "1",
      "displayName": "Permit",
      "code": "permit"
    },
    {
      "priority": "2",
      "displayName": "Expired",
      "code": "expired"
    },
    {
      "priority": "3",
      "displayName": "Suspended or Revoked",
      "code": "suspendedrevoked"
    },
    {
      "priority": "4",
      "displayName": "Foreign or International",
      "code": "foreign"
    },
    {
      "priority": "5",
      "displayName": "No Valid License",
      "code": "novalid"
    }
  ],
  "primaryResidence": [
    {
      "priority": "0",
      "displayName": "Own home",
      "code": "OwnHome"
    },
    {
      "priority": "1",
      "displayName": "Own condominium",
      "code": "OwnCondominium"
    },
    {
      "priority": "2",
      "displayName": "Own manufactured/mobile home",
      "code": "OwnMobileHome"
    },
    {
      "priority": "3",
      "displayName": "Live with parents",
      "code": "LivesWithParents"
    },
    {
      "priority": "4",
      "displayName": "Rent",
      "code": "Renter"
    },
    {
      "priority": "5",
      "displayName": "Hotel/Motel",
      "code": "HotelMotel"
    },
    {
      "priority": "6",
      "displayName": "Other",
      "code": "Other"
    }
  ],
  "residenceType": [
    {
      "priority": "10",
      "displayName": "Single family",
      "code": "Fam1"
    },
    {
      "priority": "20",
      "displayName": "Two family",
      "code": "Fam2"
    },
    {
      "priority": "30",
      "displayName": "Three family",
      "code": "Fam3"
    },
    {
      "priority": "40",
      "displayName": "Four family",
      "code": "Fam4"
    },
    {
      "priority": "50",
      "displayName": "Apartment",
      "code": "Apt"
    },
    {
      "priority": "60",
      "displayName": "Condominium",
      "code": "Condo"
    },
    {
      "priority": "70",
      "displayName": "Townhouse or Rowhouse",
      "code": "TownRow"
    },
    {
      "priority": "80",
      "displayName": "Mobile home",
      "code": "MobileHome"
    },
    {
      "priority": "90",
      "displayName": "Manufactured home",
      "code": "ManufacturedHome"
    }
  ],
  "stateLicensed": [
    {
      "priority": "0",
      "displayName": "Alabama",
      "code": "AL"
    },
    {
      "priority": "1",
      "displayName": "Alaska",
      "code": "AK"
    },
    {
      "priority": "2",
      "displayName": "Arizona",
      "code": "AZ"
    },
    {
      "priority": "3",
      "displayName": "Arkansas",
      "code": "AR"
    },
    {
      "priority": "4",
      "displayName": "California",
      "code": "CA"
    },
    {
      "priority": "5",
      "displayName": "Colorado",
      "code": "CO"
    },
    {
      "priority": "6",
      "displayName": "Connecticut",
      "code": "CT"
    },
    {
      "priority": "7",
      "displayName": "Delaware",
      "code": "DE"
    },
    {
      "priority": "8",
      "displayName": "District of Columbia",
      "code": "DC"
    },
    {
      "priority": "9",
      "displayName": "Florida",
      "code": "FL"
    },
    {
      "priority": "10",
      "displayName": "Georgia",
      "code": "GA"
    },
    {
      "priority": "11",
      "displayName": "Hawaii",
      "code": "HI"
    },
    {
      "priority": "12",
      "displayName": "Idaho",
      "code": "ID"
    },
    {
      "priority": "13",
      "displayName": "Illinois",
      "code": "IL"
    },
    {
      "priority": "14",
      "displayName": "Indiana",
      "code": "IN"
    },
    {
      "priority": "15",
      "displayName": "Iowa",
      "code": "IA"
    },
    {
      "priority": "16",
      "displayName": "Kansas",
      "code": "KS"
    },
    {
      "priority": "17",
      "displayName": "Kentucky",
      "code": "KY"
    },
    {
      "priority": "18",
      "displayName": "Louisiana",
      "code": "LA"
    },
    {
      "priority": "19",
      "displayName": "Maine",
      "code": "ME"
    },
    {
      "priority": "20",
      "displayName": "Maryland",
      "code": "MD"
    },
    {
      "priority": "21",
      "displayName": "Massachusetts",
      "code": "MA"
    },
    {
      "priority": "22",
      "displayName": "Michigan",
      "code": "MI"
    },
    {
      "priority": "23",
      "displayName": "Minnesota",
      "code": "MN"
    },
    {
      "priority": "24",
      "displayName": "Mississippi",
      "code": "MS"
    },
    {
      "priority": "25",
      "displayName": "Missouri",
      "code": "MO"
    },
    {
      "priority": "26",
      "displayName": "Montana",
      "code": "MT"
    },
    {
      "priority": "27",
      "displayName": "Nebraska",
      "code": "NE"
    },
    {
      "priority": "28",
      "displayName": "Nevada",
      "code": "NV"
    },
    {
      "priority": "29",
      "displayName": "New Hampshire",
      "code": "NH"
    },
    {
      "priority": "30",
      "displayName": "New Jersey",
      "code": "NJ"
    },
    {
      "priority": "31",
      "displayName": "New Mexico",
      "code": "NM"
    },
    {
      "priority": "32",
      "displayName": "New York",
      "code": "NY"
    },
    {
      "priority": "33",
      "displayName": "North Carolina",
      "code": "NC"
    },
    {
      "priority": "34",
      "displayName": "North Dakota",
      "code": "ND"
    },
    {
      "priority": "35",
      "displayName": "Ohio",
      "code": "OH"
    },
    {
      "priority": "36",
      "displayName": "Oklahoma",
      "code": "OK"
    },
    {
      "priority": "37",
      "displayName": "Oregon",
      "code": "OR"
    },
    {
      "priority": "38",
      "displayName": "Pennsylvania",
      "code": "PA"
    },
    {
      "priority": "39",
      "displayName": "Rhode Island",
      "code": "RI"
    },
    {
      "priority": "40",
      "displayName": "South Carolina",
      "code": "SC"
    },
    {
      "priority": "41",
      "displayName": "South Dakota",
      "code": "SD"
    },
    {
      "priority": "42",
      "displayName": "Tennessee",
      "code": "TN"
    },
    {
      "priority": "43",
      "displayName": "Texas",
      "code": "TX"
    },
    {
      "priority": "44",
      "displayName": "Utah",
      "code": "UT"
    },
    {
      "priority": "45",
      "displayName": "Vermont",
      "code": "VT"
    },
    {
      "priority": "46",
      "displayName": "Virginia",
      "code": "VA"
    },
    {
      "priority": "47",
      "displayName": "Washington",
      "code": "WA"
    },
    {
      "priority": "48",
      "displayName": "West Virginia",
      "code": "WV"
    },
    {
      "priority": "49",
      "displayName": "Wisconsin",
      "code": "WI"
    },
    {
      "priority": "50",
      "displayName": "Wyoming",
      "code": "WY"
    },
    {
      "priority": "51",
      "displayName": "Undisclosed Driver",
      "code": "Undisclosed"
    }
  ],
  "countryLicensed": [
    {
      "priority": "0",
      "displayName": "Argentina",
      "code": "AR"
    },
    {
      "priority": "1",
      "displayName": "Aruba",
      "code": "AW"
    },
    {
      "priority": "2",
      "displayName": "Australia",
      "code": "AU"
    },
    {
      "priority": "3",
      "displayName": "Austria",
      "code": "AT"
    },
    {
      "priority": "4",
      "displayName": "Bahamas",
      "code": "BS"
    },
    {
      "priority": "5",
      "displayName": "Bolivia",
      "code": "BO"
    },
    {
      "priority": "6",
      "displayName": "Brazil",
      "code": "BR"
    },
    {
      "priority": "7",
      "displayName": "British Virgin Islands",
      "code": "VG"
    },
    {
      "priority": "8",
      "displayName": "Bulgaria",
      "code": "BG"
    },
    {
      "priority": "9",
      "displayName": "Canada",
      "code": "CA"
    },
    {
      "priority": "10",
      "displayName": "Chile",
      "code": "CL"
    },
    {
      "priority": "11",
      "displayName": "China",
      "code": "CN"
    },
    {
      "priority": "12",
      "displayName": "Colombia",
      "code": "CO"
    },
    {
      "priority": "13",
      "displayName": "Cook Islands",
      "code": "CK"
    },
    {
      "priority": "14",
      "displayName": "Costa Rica",
      "code": "CR"
    },
    {
      "priority": "15",
      "displayName": "Cuba",
      "code": "CU"
    },
    {
      "priority": "16",
      "displayName": "Czech Republic",
      "code": "CZ"
    },
    {
      "priority": "17",
      "displayName": "Denmark",
      "code": "DK"
    },
    {
      "priority": "18",
      "displayName": "Dominican Republic",
      "code": "DO"
    },
    {
      "priority": "19",
      "displayName": "Ecuador",
      "code": "EC"
    },
    {
      "priority": "20",
      "displayName": "Egypt",
      "code": "EG"
    },
    {
      "priority": "21",
      "displayName": "El Salvador",
      "code": "SV"
    },
    {
      "priority": "22",
      "displayName": "Fiji",
      "code": "FJ"
    },
    {
      "priority": "23",
      "displayName": "Finland",
      "code": "FI"
    },
    {
      "priority": "24",
      "displayName": "France",
      "code": "FR"
    },
    {
      "priority": "25",
      "displayName": "French Guiana",
      "code": "GF"
    },
    {
      "priority": "26",
      "displayName": "French Polynesia",
      "code": "PF"
    },
    {
      "priority": "27",
      "displayName": "Germany",
      "code": "DE"
    },
    {
      "priority": "28",
      "displayName": "Greece",
      "code": "GR"
    },
    {
      "priority": "29",
      "displayName": "Greenland",
      "code": "GL"
    },
    {
      "priority": "30",
      "displayName": "Guam",
      "code": "GU"
    },
    {
      "priority": "31",
      "displayName": "Guatemala",
      "code": "GT"
    },
    {
      "priority": "32",
      "displayName": "Haiti",
      "code": "HT"
    },
    {
      "priority": "33",
      "displayName": "Honduras",
      "code": "HN"
    },
    {
      "priority": "34",
      "displayName": "Hong Kong",
      "code": "HK"
    },
    {
      "priority": "35",
      "displayName": "Hungary",
      "code": "HU"
    },
    {
      "priority": "36",
      "displayName": "Iceland",
      "code": "IS"
    },
    {
      "priority": "37",
      "displayName": "India",
      "code": "IN"
    },
    {
      "priority": "38",
      "displayName": "Indonesia",
      "code": "ID"
    },
    {
      "priority": "39",
      "displayName": "Iran",
      "code": "IR"
    },
    {
      "priority": "40",
      "displayName": "Iraq",
      "code": "IQ"
    },
    {
      "priority": "41",
      "displayName": "Ireland",
      "code": "IE"
    },
    {
      "priority": "42",
      "displayName": "Israel",
      "code": "IL"
    },
    {
      "priority": "43",
      "displayName": "Italy",
      "code": "IT"
    },
    {
      "priority": "44",
      "displayName": "Jamaica",
      "code": "JM"
    },
    {
      "priority": "45",
      "displayName": "Japan",
      "code": "JP"
    },
    {
      "priority": "46",
      "displayName": "Jordan",
      "code": "JO"
    },
    {
      "priority": "47",
      "displayName": "Kenya",
      "code": "KE"
    },
    {
      "priority": "48",
      "displayName": "Kiribati, Republic of",
      "code": "KI"
    },
    {
      "priority": "49",
      "displayName": "North Korea",
      "code": "KP"
    },
    {
      "priority": "50",
      "displayName": "South Korea",
      "code": "KR"
    },
    {
      "priority": "51",
      "displayName": "Kuwait",
      "code": "KW"
    },
    {
      "priority": "52",
      "displayName": "Lebanon",
      "code": "LB"
    },
    {
      "priority": "53",
      "displayName": "Libya",
      "code": "LY"
    },
    {
      "priority": "54",
      "displayName": "Malaysia",
      "code": "MY"
    },
    {
      "priority": "55",
      "displayName": "Marshall Islands",
      "code": "MH"
    },
    {
      "priority": "56",
      "displayName": "Mauritius",
      "code": "MU"
    },
    {
      "priority": "57",
      "displayName": "Mexico",
      "code": "MX"
    },
    {
      "priority": "58",
      "displayName": "Monaco",
      "code": "MC"
    },
    {
      "priority": "59",
      "displayName": "Mongolia",
      "code": "MN"
    },
    {
      "priority": "60",
      "displayName": "Morocco",
      "code": "MA"
    },
    {
      "priority": "61",
      "displayName": "Netherlands",
      "code": "NL"
    },
    {
      "priority": "62",
      "displayName": "New Zealand",
      "code": "NZ"
    },
    {
      "priority": "63",
      "displayName": "Norway",
      "code": "NO"
    },
    {
      "priority": "64",
      "displayName": "Pakistan",
      "code": "PK"
    },
    {
      "priority": "65",
      "displayName": "Panama",
      "code": "PA"
    },
    {
      "priority": "66",
      "displayName": "Papua New Guinea",
      "code": "PG"
    },
    {
      "priority": "67",
      "displayName": "Paraguay",
      "code": "PY"
    },
    {
      "priority": "68",
      "displayName": "Peru",
      "code": "PE"
    },
    {
      "priority": "69",
      "displayName": "Philippines",
      "code": "PH"
    },
    {
      "priority": "70",
      "displayName": "Poland",
      "code": "PL"
    },
    {
      "priority": "71",
      "displayName": "Portugal",
      "code": "PT"
    },
    {
      "priority": "72",
      "displayName": "Puerto Rico",
      "code": "PR"
    },
    {
      "priority": "73",
      "displayName": "Romania",
      "code": "RO"
    },
    {
      "priority": "74",
      "displayName": "Russian Federation",
      "code": "RU"
    },
    {
      "priority": "75",
      "displayName": "Rwanda",
      "code": "RW"
    },
    {
      "priority": "76",
      "displayName": "Samoa",
      "code": "WS"
    },
    {
      "priority": "77",
      "displayName": "Saudi Arabia",
      "code": "SA"
    },
    {
      "priority": "78",
      "displayName": "Senegal",
      "code": "SN"
    },
    {
      "priority": "79",
      "displayName": "Serbia",
      "code": "RS"
    },
    {
      "priority": "80",
      "displayName": "Seychelles",
      "code": "SC"
    },
    {
      "priority": "81",
      "displayName": "Singapore",
      "code": "SG"
    },
    {
      "priority": "82",
      "displayName": "Solomon Islands",
      "code": "SB"
    },
    {
      "priority": "83",
      "displayName": "South Africa",
      "code": "ZA"
    },
    {
      "priority": "84",
      "displayName": "Spain",
      "code": "ES"
    },
    {
      "priority": "85",
      "displayName": "Sudan",
      "code": "SD"
    },
    {
      "priority": "86",
      "displayName": "Sweden",
      "code": "SE"
    },
    {
      "priority": "87",
      "displayName": "Switzerland",
      "code": "CH"
    },
    {
      "priority": "88",
      "displayName": "Taiwan",
      "code": "TW"
    },
    {
      "priority": "89",
      "displayName": "Thailand",
      "code": "TH"
    },
    {
      "priority": "90",
      "displayName": "Turkey",
      "code": "TR"
    },
    {
      "priority": "91",
      "displayName": "Uganda",
      "code": "UG"
    },
    {
      "priority": "92",
      "displayName": "Ukraine",
      "code": "UA"
    },
    {
      "priority": "93",
      "displayName": "United Arab Emirates",
      "code": "AE"
    },
    {
      "priority": "94",
      "displayName": "United Kingdom",
      "code": "GB"
    },
    {
      "priority": "95",
      "displayName": "US Virgin Islands",
      "code": "VI"
    },
    {
      "priority": "96",
      "displayName": "Venezuela",
      "code": "VE"
    },
    {
      "priority": "97",
      "displayName": "Viet Nam",
      "code": "VN"
    },
    {
      "priority": "98",
      "displayName": "Zambia",
      "code": "ZM"
    },
    {
      "priority": "99",
      "displayName": "Zimbabwe",
      "code": "ZW"
    }
  ],
  "occupationIndustry": [
    {
      "priority": "0",
      "displayName": "Agriculture/Forestry/Fishing",
      "code": "1"
    },
    {
      "priority": "1",
      "displayName": "Art/Design/Media",
      "code": "2"
    },
    {
      "priority": "2",
      "displayName": "Banking/Finance/Real Estate",
      "code": "3"
    },
    {
      "priority": "3",
      "displayName": "Business/Sales/Office",
      "code": "4"
    },
    {
      "priority": "4",
      "displayName": "Construction/Energy Trades",
      "code": "5"
    },
    {
      "priority": "6",
      "displayName": "Disabled",
      "code": "6"
    },
    {
      "priority": "7",
      "displayName": "Education/Library",
      "code": "7"
    },
    {
      "priority": "8",
      "displayName": "Engineer/Architect/Science/Math",
      "code": "8"
    },
    {
      "priority": "9",
      "displayName": "Government/Military",
      "code": "9"
    },
    {
      "priority": "10",
      "displayName": "Homemaker/House person",
      "code": "10"
    },
    {
      "priority": "11",
      "displayName": "Information Technology",
      "code": "11"
    },
    {
      "priority": "12",
      "displayName": "Insurance",
      "code": "12"
    },
    {
      "priority": "13",
      "displayName": "Legal/Law Enforcement/Security",
      "code": "13"
    },
    {
      "priority": "14",
      "displayName": "Maintenance/Repair/Housekeeping",
      "code": "14"
    },
    {
      "priority": "15",
      "displayName": "Manufacturing/Production",
      "code": "15"
    },
    {
      "priority": "16",
      "displayName": "Medical/Social Services/Religion",
      "code": "16"
    },
    {
      "priority": "17",
      "displayName": "Other",
      "code": "17"
    },
    {
      "priority": "18",
      "displayName": "Personal Care/Service",
      "code": "18"
    },
    {
      "priority": "19",
      "displayName": "Restaurant/Hotel Services",
      "code": "19"
    },
    {
      "priority": "20",
      "displayName": "Retired 55 and Older",
      "code": "21"
    },
    {
      "priority": "21",
      "displayName": "Retired under 55",
      "code": "20"
    },
    {
      "priority": "22",
      "displayName": "Sports/Recreation",
      "code": "22"
    },
    {
      "priority": "23",
      "displayName": "Student",
      "code": "23"
    },
    {
      "priority": "24",
      "displayName": "Travel/Transportation/Warehousing",
      "code": "24"
    },
    {
      "priority": "25",
      "displayName": "Unemployed",
      "code": "25"
    }
  ],
  "educationLevel": [
    {
      "priority": "0",
      "displayName": "No High School Diploma or GED",
      "code": "1"
    },
    {
      "priority": "1",
      "displayName": "High School Diploma or GED",
      "code": "2"
    },
    {
      "priority": "2",
      "displayName": "Vocational or Trade School Degree",
      "code": "3"
    },
    {
      "priority": "3",
      "displayName": "Some College",
      "code": "4"
    },
    {
      "priority": "4",
      "displayName": "Currently in College",
      "code": "5"
    },
    {
      "priority": "5",
      "displayName": "College Degree",
      "code": "6"
    },
    {
      "priority": "6",
      "displayName": "Graduate Work or Graduate Degree",
      "code": "7"
    }
  ],
  "excludedReason": [
    {
      "priority": "0",
      "displayName": "Has insurance, but not with Mercury",
      "code": "hasOtherIns"
    },
    {
      "priority": "1",
      "displayName": "Has insurance with Mercury",
      "code": "hasOtherIns2"
    },
    {
      "priority": "2",
      "displayName": "Out of the country",
      "code": "outOfCountry"
    },
    {
      "priority": "3",
      "displayName": "Disabled and does not have a license",
      "code": "disabled"
    },
    {
      "priority": "4",
      "displayName": "Voluntarily surrendered license",
      "code": "surrendered"
    },
    {
      "priority": "5",
      "displayName": "License is suspended or revoked",
      "code": "suspended"
    },
    {
      "priority": "7",
      "displayName": "Not licensed and does not drive",
      "code": "unlicensed"
    },
    {
      "priority": "8",
      "displayName": "Incarcerated",
      "code": "incarcerated"
    }
  ],
  "associationGroup": [
    {
      "priority": "0",
      "displayName": "Mercury Employee",
      "code": "MercuryEmployee"
    },
    {
      "priority": "1",
      "displayName": "None",
      "code": "None"
    }
  ],
  "violationType": [
    {
      "priority": "0",
      "displayName": "At-Fault Accident with Injury",
      "code": "NY_AFB"
    },
    {
      "priority": "1",
      "displayName": "At-Fault Accident where no one was injured",
      "code": "NY_AAF"
    },
    {
      "priority": "2",
      "displayName": "Not-at-Fault Accident",
      "code": "NAF"
    },
    {
      "priority": "4",
      "displayName": "Driving Under the Influence",
      "code": "DUI"
    },
    {
      "priority": "5",
      "displayName": "Speeding 1 - 15 mph above limit",
      "code": "NY_SPL"
    },
    {
      "priority": "6",
      "displayName": "Speeding 16 mph and higher above limit",
      "code": "NY_SPH"
    },
    {
      "priority": "7",
      "displayName": "Comprehensive Claim over $1,000",
      "code": "CMP"
    },
    {
      "priority": "8",
      "displayName": "Comprehensive Claim $1,000 and under",
      "code": "CMU"
    },
    {
      "priority": "9",
      "displayName": "AutoTheft/Felony with a Motor Vehicle",
      "code": "FEL"
    },
    {
      "priority": "10",
      "displayName": "Careless/Improper Driving",
      "code": "NY_CRD"
    },
    {
      "priority": "11",
      "displayName": "Drag Racing",
      "code": "DR"
    },
    {
      "priority": "12",
      "displayName": "Driving Under Suspension",
      "code": "SUS"
    },
    {
      "priority": "13",
      "displayName": "Failure to Report Accident",
      "code": "FRA"
    },
    {
      "priority": "14",
      "displayName": "Failure to Yield",
      "code": "FTY"
    },
    {
      "priority": "15",
      "displayName": "Fleeing the Police",
      "code": "FLE"
    },
    {
      "priority": "16",
      "displayName": "Following Too Closely",
      "code": "FTC"
    },
    {
      "priority": "17",
      "displayName": "Improper Backing",
      "code": "IBK"
    },
    {
      "priority": "18",
      "displayName": "Improper Passing",
      "code": "IP"
    },
    {
      "priority": "19",
      "displayName": "Improper Turn",
      "code": "IT"
    },
    {
      "priority": "20",
      "displayName": "Leaving the Scene",
      "code": "LVS"
    },
    {
      "priority": "21",
      "displayName": "License Suspended/Revoked",
      "code": "LSR"
    },
    {
      "priority": "22",
      "displayName": "License/Credentials Violation",
      "code": "LIC"
    },
    {
      "priority": "23",
      "displayName": "Minor Moving Violation",
      "code": "MMV"
    },
    {
      "priority": "24",
      "displayName": "No Charge Violation",
      "code": "NCL"
    },
    {
      "priority": "25",
      "displayName": "Open Bottle",
      "code": "BOT"
    },
    {
      "priority": "26",
      "displayName": "Permissive User Loss",
      "code": "PUL"
    },
    {
      "priority": "27",
      "displayName": "Reckless Driving",
      "code": "RKD"
    },
    {
      "priority": "28",
      "displayName": "Refusal to Take Test",
      "code": "REF"
    },
    {
      "priority": "29",
      "displayName": "Safety Violations",
      "code": "NY_SAF"
    },
    {
      "priority": "30",
      "displayName": "Traffic Device/Sign",
      "code": "DEV"
    },
    {
      "priority": "31",
      "displayName": "Vehicular Homicide",
      "code": "HOM"
    },
    {
      "priority": "32",
      "displayName": "Wrong Way on One Way Street",
      "code": "WSR"
    },
    {
      "priority": "33",
      "displayName": "Closed without payment ",
      "code": "CWP"
    },
    {
      "priority": "34",
      "displayName": "Other Major Violation",
      "code": "MAJ"
    }
  ],
  "hasMercuryPolicy": [
    {
      "priority": "0",
      "displayName": "Homeowner",
      "code": "Homeowner"
    },
    {
      "priority": "1",
      "displayName": "Renters",
      "code": "Renters"
    },
    {
      "priority": "2",
      "displayName": "Condo",
      "code": "Condo"
    }
  ],
  "priorInsDuration": [
    {
      "priority": "0",
      "displayName": "0 - 5 Months",
      "code": "0_5Months"
    },
    {
      "priority": "1",
      "displayName": "6 - 11 Months",
      "code": "6_11Months"
    },
    {
      "priority": "2",
      "displayName": "12 - 17 Months",
      "code": "12_17Months"
    },
    {
      "priority": "3",
      "displayName": "18 - 23 Months",
      "code": "18_23Months"
    },
    {
      "priority": "4",
      "displayName": "2 Years",
      "code": "2_Years"
    },
    {
      "priority": "5",
      "displayName": "3 Years",
      "code": "3_Years"
    },
    {
      "priority": "6",
      "displayName": "4 Years",
      "code": "4_Years"
    },
    {
      "priority": "7",
      "displayName": "5+ Years",
      "code": "5PlusYears"
    }
  ],
  "reasonForQuoting": [
    {
      "priority": "0",
      "displayName": "Relocating from another State",
      "code": "MercuryAnotherState"
    },
    {
      "priority": "1",
      "displayName": "Separation/divorce from spouse",
      "code": "Divorced"
    },
    {
      "priority": "2",
      "displayName": "Policyholder on a Mercury commercial auto policy",
      "code": "CommercialAuto"
    },
    {
      "priority": "3",
      "displayName": "Previously insured on parents' policy",
      "code": "ChildOfNamedInsured"
    },
    {
      "priority": "4",
      "displayName": "Previously insured on son or daughter's policy",
      "code": "ParentOfnamedInsured"
    },
    {
      "priority": "5",
      "displayName": "Changing insurance agent",
      "code": "ChangedAgents"
    },
    {
      "priority": "6",
      "displayName": "Previously insured on Mercury auto policy, but not as Policyholder or Spouse",
      "code": "MercuryAsOther"
    },
    {
      "priority": "7",
      "displayName": "Other",
      "code": "Other"
    }
  ],
  "priorPolicyCarriers": [
    {
      "priority": "0",
      "displayName": "21ST CENTURY",
      "code": "21stCenturyIns"
    },
    {
      "priority": "1",
      "displayName": "AAA/AUTO CLUB",
      "code": "AutoClubIns"
    },
    {
      "priority": "2",
      "displayName": "AIG",
      "code": "AIGM"
    },
    {
      "priority": "3",
      "displayName": "ALFA",
      "code": "Alfa"
    },
    {
      "priority": "4",
      "displayName": "ALLIED",
      "code": "AlliedGroup"
    },
    {
      "priority": "5",
      "displayName": "ALLSTATE",
      "code": "Allstate1"
    },
    {
      "priority": "6",
      "displayName": "AMERICAN FAMILY",
      "code": "AmericanFamily1"
    },
    {
      "priority": "7",
      "displayName": "AMERICAN INDEPENDENT",
      "code": "AmericanIndependentIns"
    },
    {
      "priority": "8",
      "displayName": "AMERICAN NATIONAL",
      "code": "AmericanNational1"
    },
    {
      "priority": "9",
      "displayName": "AMICA",
      "code": "Amica"
    },
    {
      "priority": "10",
      "displayName": "AREBELLA",
      "code": "ArabellaIns"
    },
    {
      "priority": "11",
      "displayName": "ASSURANCEAMERICA",
      "code": "AssuranceAmerica"
    },
    {
      "priority": "12",
      "displayName": "AUTO-OWNERS",
      "code": "Auto-Owners1"
    },
    {
      "priority": "13",
      "displayName": "BRISTOL WEST/FOREMOST",
      "code": "BristolWest"
    },
    {
      "priority": "14",
      "displayName": "CALIFORNIA CASUALTY",
      "code": "CaliforniaCasualty"
    },
    {
      "priority": "15",
      "displayName": "CALIFORNIA STATE AUTO ASSOCIATION",
      "code": "CSAA"
    },
    {
      "priority": "16",
      "displayName": "CHUBB",
      "code": "Chubb1"
    },
    {
      "priority": "17",
      "displayName": "CINCINNATI FINANCIAL",
      "code": "CincinnatiFinancial"
    },
    {
      "priority": "18",
      "displayName": "CITIZENS",
      "code": "Citizens1"
    },
    {
      "priority": "19",
      "displayName": "COMMERCE",
      "code": "Commerce"
    },
    {
      "priority": "20",
      "displayName": "COUNTRY",
      "code": "CountryIns"
    },
    {
      "priority": "21",
      "displayName": "DAIRYLAND/SENTRY",
      "code": "Dairyland-Sentry"
    },
    {
      "priority": "22",
      "displayName": "DEERBROOK",
      "code": "DeerBrook"
    },
    {
      "priority": "23",
      "displayName": "DIRECT GENERAL",
      "code": "DirectGeneral"
    },
    {
      "priority": "24",
      "displayName": "DONEGAL",
      "code": "Donegal"
    },
    {
      "priority": "25",
      "displayName": "ENCOMPASS",
      "code": "Encompass"
    },
    {
      "priority": "26",
      "displayName": "EQUITY",
      "code": "Equity"
    },
    {
      "priority": "27",
      "displayName": "ERIE",
      "code": "Erie"
    },
    {
      "priority": "28",
      "displayName": "ESURANCE",
      "code": "Esurance"
    },
    {
      "priority": "29",
      "displayName": "FARM BUREAU",
      "code": "FarmBureau"
    },
    {
      "priority": "30",
      "displayName": "FARMERS",
      "code": "Farmers"
    },
    {
      "priority": "31",
      "displayName": "FIRST ACCEPTANCE",
      "code": "FirstAcceptanceIns"
    },
    {
      "priority": "32",
      "displayName": "FRANKENMUTH",
      "code": "Frankenmuth"
    },
    {
      "priority": "33",
      "displayName": "GEICO",
      "code": "GeicoCorp"
    },
    {
      "priority": "34",
      "displayName": "GMAC/INTEGON",
      "code": "Gmac"
    },
    {
      "priority": "35",
      "displayName": "GOODVILLE MUTUAL",
      "code": "GoodvilleMutCasualtyCo"
    },
    {
      "priority": "36",
      "displayName": "GRANGE MUTUAL",
      "code": "GrangeMutual"
    },
    {
      "priority": "37",
      "displayName": "HANOVER",
      "code": "HanoverInsGroup"
    },
    {
      "priority": "38",
      "displayName": "HARLEYSVILLE",
      "code": "Harleysville1"
    },
    {
      "priority": "39",
      "displayName": "HARTFORD",
      "code": "Hartford1"
    },
    {
      "priority": "40",
      "displayName": "HASTINGS",
      "code": "Hastings"
    },
    {
      "priority": "41",
      "displayName": "HIGH POINT/PLYMOUTH ROCK ",
      "code": "HighPointIns"
    },
    {
      "priority": "42",
      "displayName": "HORACE MANN",
      "code": "HoraceMann"
    },
    {
      "priority": "43",
      "displayName": "IDS/AMERIPRISE",
      "code": "IDSAmeriprise"
    },
    {
      "priority": "44",
      "displayName": "IMPERIAL",
      "code": "Imperial"
    },
    {
      "priority": "45",
      "displayName": "INFINITY",
      "code": "Infinity"
    },
    {
      "priority": "46",
      "displayName": "KINGSWAY AMIGO",
      "code": "KingswayAmigo"
    },
    {
      "priority": "47",
      "displayName": "LIBERTY MUTUAL",
      "code": "LibertyMutual1"
    },
    {
      "priority": "48",
      "displayName": "MAPFRE",
      "code": "MapfreInsuranceCompany"
    },
    {
      "priority": "49",
      "displayName": "MEEMIC",
      "code": "MEEMIC"
    },
    {
      "priority": "50",
      "displayName": "MENDOTA",
      "code": "MENDOTAR10"
    },
    {
      "priority": "51",
      "displayName": "MERCURY",
      "code": "MIG"
    },
    {
      "priority": "52",
      "displayName": "METLIFE",
      "code": "MetLife1"
    },
    {
      "priority": "53",
      "displayName": "MGA",
      "code": "MGA"
    },
    {
      "priority": "54",
      "displayName": "MICHIGAN MILLERS",
      "code": "MichiganMillers"
    },
    {
      "priority": "55",
      "displayName": "MOTORISTS MUTUAL",
      "code": "MotoristsMutual"
    },
    {
      "priority": "56",
      "displayName": "MUTUAL BENEFIT",
      "code": "MutualBenefitInsCo"
    },
    {
      "priority": "57",
      "displayName": "NATIONAL GRANGE MUTUAL",
      "code": "NationalGrangeMutInsGrp"
    },
    {
      "priority": "58",
      "displayName": "NATIONWIDE",
      "code": "NationWide"
    },
    {
      "priority": "59",
      "displayName": "NEW JERSEY MANUFACTURERS",
      "code": "NJManufacturers"
    },
    {
      "priority": "60",
      "displayName": "NEW YORK CENTRAL MUTUAL",
      "code": "NYCentralMutFireIns"
    },
    {
      "priority": "61",
      "displayName": "OCCIDENTAL",
      "code": "Occidental"
    },
    {
      "priority": "62",
      "displayName": "OCEAN HARBOR",
      "code": "OceanHarbor"
    },
    {
      "priority": "63",
      "displayName": "OHIO CASUALTY",
      "code": "OhioCasuality"
    },
    {
      "priority": "64",
      "displayName": "ONEBEACON",
      "code": "Onebeacon1"
    },
    {
      "priority": "65",
      "displayName": "PEERLESS",
      "code": "Peerless"
    },
    {
      "priority": "66",
      "displayName": "PENN NATIONAL",
      "code": "PennNational"
    },
    {
      "priority": "67",
      "displayName": "PERMANENT GENERAL",
      "code": "PermanentGeneral"
    },
    {
      "priority": "68",
      "displayName": "PIONEER",
      "code": "PIONEER"
    },
    {
      "priority": "69",
      "displayName": "PRIVILEGE/PURE UNDERWRITERS",
      "code": "PrivilegePureUnderwriters"
    },
    {
      "priority": "70",
      "displayName": "PROGRESSIVE",
      "code": "Progressive"
    },
    {
      "priority": "71",
      "displayName": "SAFE AUTO",
      "code": "SafeAutoInsCo"
    },
    {
      "priority": "72",
      "displayName": "SAFECO",
      "code": "Safeco"
    },
    {
      "priority": "73",
      "displayName": "SECURA",
      "code": "SECURA"
    },
    {
      "priority": "74",
      "displayName": "SELECTIVE",
      "code": "SelectiveIns"
    },
    {
      "priority": "75",
      "displayName": "SHELTER",
      "code": "Shelter1"
    },
    {
      "priority": "76",
      "displayName": "STATE AUTO",
      "code": "StateAuto"
    },
    {
      "priority": "77",
      "displayName": "STATE FARM",
      "code": "StateFarm1"
    },
    {
      "priority": "78",
      "displayName": "TITAN/VICTORIA",
      "code": "TITAN"
    },
    {
      "priority": "79",
      "displayName": "TRAVELERS",
      "code": "TravelersProperty"
    },
    {
      "priority": "80",
      "displayName": "UNITED AUTO",
      "code": "UnitedAuto"
    },
    {
      "priority": "81",
      "displayName": "UNITRIN/KEMPER",
      "code": "Unitrin"
    },
    {
      "priority": "82",
      "displayName": "USAA",
      "code": "USAA1"
    },
    {
      "priority": "83",
      "displayName": "WINDHAVEN",
      "code": "Windhaven"
    },
    {
      "priority": "84",
      "displayName": "WOLVERINE",
      "code": "WOLVERINE"
    },
    {
      "priority": "85",
      "displayName": "OTHER",
      "code": "Other"
    }
  ],
  "priorBIPDSet": [
    {
      "priority": "0",
      "displayName": "None",
      "code": "PAPrInNone"
    },
    {
      "priority": "1",
      "displayName": "$25,000/$50,000 (State Min) or less",
      "code": "PAPrInLT2550"
    },
    {
      "priority": "2",
      "displayName": "$50,000/$100,000",
      "code": "PAPrInBT2550_100300"
    },
    {
      "priority": "3",
      "displayName": "$100,000/$300,000 (300 CSL)",
      "code": "PAPrInBT100300_250500"
    },
    {
      "priority": "4",
      "displayName": "$250,000/$500,000 (500 CSL)",
      "code": "PAPrInGT250500"
    }
  ],
  "durationOfNotInsured": [
    {
      "priority": "1",
      "displayName": "1 - 30 days",
      "code": "LessThan31"
    },
    {
      "priority": "2",
      "displayName": "31+ days",
      "code": "GreaterThan30"
    },
    {
      "priority": "2",
      "displayName": "Not previously insured",
      "code": "NoPriorIns"
    }
  ],
  "noPriorInsReasons": [
    {
      "priority": "2",
      "displayName": "Drove company vehicle",
      "code": "CompanyVehicle"
    },
    {
      "priority": "3",
      "displayName": "Active duty in the U.S. Military",
      "code": "MilitaryDeployment"
    },
    {
      "priority": "4",
      "displayName": "Mission outside U.S. without access to personally owned vehicle",
      "code": "MilitaryDeployment2"
    },
    {
      "priority": "5",
      "displayName": "Under minimum driving age",
      "code": "NewlyLicensed"
    },
    {
      "priority": "6",
      "displayName": "Did not own vehicle previously",
      "code": "NoOwnedVehicle"
    },
    {
      "priority": "7",
      "displayName": "Other",
      "code": "Other"
    }
  ],
  "noPersonInHouse": [
    {
      "priority": "0",
      "displayName": "1",
      "code": "1"
    },
    {
      "priority": "1",
      "displayName": "2",
      "code": "2"
    },
    {
      "priority": "2",
      "displayName": "3",
      "code": "3"
    },
    {
      "priority": "3",
      "displayName": "4",
      "code": "4"
    },
    {
      "priority": "4",
      "displayName": "5",
      "code": "5"
    },
    {
      "priority": "5",
      "displayName": "6",
      "code": "6"
    },
    {
      "priority": "6",
      "displayName": "7",
      "code": "7"
    },
    {
      "priority": "7",
      "displayName": "8",
      "code": "8"
    },
    {
      "priority": "8",
      "displayName": "9",
      "code": "9"
    },
    {
      "priority": "9",
      "displayName": "10+",
      "code": "10"
    }
  ],
  "apipPackages": [
    {
      "priority": "0",
      "displayName": "Package A",
      "code": "PackageA"
    },
    {
      "priority": "1",
      "displayName": "Package B",
      "code": "PackageB"
    },
    {
      "priority": "2",
      "displayName": "Package C",
      "code": "PackageC"
    },
    {
      "priority": "3",
      "displayName": "Package D",
      "code": "PackageD"
    },
    {
      "priority": "4",
      "displayName": "Package E",
      "code": "PackageE"
    },
    {
      "priority": "5",
      "displayName": "Package F",
      "code": "PackageF"
    },
    {
      "priority": "6",
      "displayName": "Package G",
      "code": "PackageG"
    },
    {
      "priority": "7",
      "displayName": "Package H",
      "code": "PackageH"
    },
    {
      "priority": "8",
      "displayName": "Package I",
      "code": "PackageI"
    },
    {
      "priority": "9",
      "displayName": "Package J",
      "code": "PackageJ"
    },
    {
      "priority": "10",
      "displayName": "Package K",
      "code": "PackageK"
    },
    {
      "priority": "11",
      "displayName": "Package L",
      "code": "PackageL"
    },
    {
      "priority": "12",
      "displayName": "Package M",
      "code": "PackageM"
    },
    {
      "priority": "13",
      "displayName": "Package N",
      "code": "PackageN"
    },
    {
      "priority": "14",
      "displayName": "Package O",
      "code": "PackageO"
    },
    {
      "priority": "15",
      "displayName": "Package P",
      "code": "PackageP"
    },
    {
      "priority": "16",
      "displayName": "Decline coverage",
      "code": "Decline"
    }
  ]
}
