<?xml version="1.0" encoding="utf-8"?>
<!-- Generator: Adobe Illustrator 21.1.0, SVG Export Plug-In . SVG Version: 6.00 Build 0)  -->
<svg version="1.1" xmlns="http://www.w3.org/2000/svg" xmlns:xlink="http://www.w3.org/1999/xlink" x="0px" y="0px"
	 viewBox="0 0 50 50" style="enable-background:new 0 0 50 50;" xml:space="preserve">
<style type="text/css">
	.st0{display:none;}
	.st1{display:inline;}
	.st2{fill:none;stroke:#008BD5;stroke-width:2.5823;stroke-miterlimit:10;}
	.st3{fill:#FBB03B;}
	.st4{fill:none;stroke:#CCCCCC;stroke-width:2.3869;stroke-miterlimit:10;}
	.st5{fill:#008BD5;}
	.st6{fill:#E00909;}
	.st7{fill:#999999;}
</style>
<g id="Layer_1" class="st0">
	<g class="st1">
		<circle class="st2" cx="26.4" cy="25.6" r="28.4"/>
		<g>
			<line class="st2" x1="38" y1="14" x2="14.8" y2="37.2"/>
			<line class="st2" x1="14.8" y1="14" x2="38" y2="37.2"/>
		</g>
	</g>
</g>
<g id="Layer_2">
	<polygon class="st3" points="91,1 98.7,16.7 116,19.2 103.5,31.4 106.5,48.6 91,40.4 75.5,48.6 78.5,31.4 66,19.2 83.3,16.7 	"/>
	<polygon class="st4" points="91.5,-43.4 98.5,-29.3 114,-27.1 102.8,-16.1 105.4,-0.6 91.5,-7.9 77.6,-0.6 80.2,-16.1 69,-27.1 
		84.5,-29.3 	"/>
	<polygon class="st5" points="53.4,-36.5 48.8,-41 33.9,-26.1 26.6,-33.4 22.1,-28.8 33.9,-17 34.1,-17.2 34.1,-17.2 	"/>
	<g>
		<circle class="st6" cx="90.3" cy="57.4" r="7.6"/>
	</g>
	<g id="PQAeTR.tif_1_">
		<g>
			<path class="st5" d="M-47,18.6c1.4,0,2.8-0.1,4.2,0c2.4,0.1,4.5,1.1,6.3,2.7c1.7,1.5,2.7,3.3,3.2,5.5c0.2,0.8,0.2,1.6,0.2,2.4
				c0,2.6,0,5.2,0,7.8c0,0.4-0.1,0.5-0.4,0.7c-2.8,1.3-5.7,1.9-8.8,2.2c-5,0.5-9.9,0-14.7-1.2c-1.2-0.3-2.3-0.7-3.5-1
				c-0.3-0.1-0.3-0.2-0.3-0.5c0-2.8-0.1-5.5,0-8.3c0.1-4.1,2-7.2,5.6-9.2c1.5-0.8,3.2-1.2,4.9-1.2C-49.2,18.6-48.1,18.6-47,18.6
				C-47,18.6-47,18.6-47,18.6z"/>
			<path class="st5" d="M-38.9,9.9c0,4.5-3.6,8.1-8.1,8.1c-4.5,0-8.1-3.6-8.1-8.1c0-4.5,3.6-8.1,8.1-8.1
				C-42.5,1.7-38.9,5.3-38.9,9.9z"/>
		</g>
	</g>
	<g id="nIPbC2.tif_1_">
		<g>
			<path class="st7" d="M35.4,4.3C35.9,4.6,36,5,36,5.5c0,7.5,0,15.1,0,22.6c0,0.2,0.1,0.5-0.1,0.6c-0.2,0.2-0.5,0.6-0.8,0.6
				c-0.3,0-0.6-0.4-0.8-0.6c-0.1-0.2-0.1-0.6-0.1-0.9c0-7,0-13.9,0-20.9c0-0.2,0-0.5,0-0.8c-5.6,0-11.1,0-16.7,0c0,0.2,0,0.5,0,0.7
				c0,2.7,0,5.3,0,8c0,1-0.2,1.2-1.2,1.2c-2.7,0-5.3,0-8,0c-0.2,0-0.5,0-0.8,0c0,7.8,0,15.6,0,23.4c0.3,0,0.5,0,0.7,0
				c5.1,0,10.3,0,15.4,0c0.1,0,0.3,0,0.4,0c0.5,0,0.9,0.3,0.9,0.8c0,0.6-0.4,0.8-0.9,0.8c-2.1,0-4.3,0-6.4,0c-3.5,0-7.1,0-10.6,0
				c-1,0-1.2-0.2-1.2-1.2c0-8.1,0-16.3,0-24.4c0-0.4,0.2-0.8,0.5-1.1c3.2-3.3,6.5-6.5,9.7-9.8c0.1-0.1,0.2-0.2,0.2-0.3
				C22.7,4.3,29.1,4.3,35.4,4.3z M9,14.3c2.3,0,4.6,0,6.9,0c0-2.3,0-4.6,0-6.8C13.6,9.7,11.3,12,9,14.3z"/>
			<path class="st7" d="M46,30.5c-2.5,2.6-5.1,5.1-7.6,7.7c-1.9,1.9-3.8,3.9-5.8,5.7c-0.3,0.3-0.7,0.4-1.1,0.5c-1,0.1-1.9,0-2.9,0
				c-0.7,0-1-0.3-1-1c0-1,0-2.1,0-3.1c0-0.3,0.2-0.7,0.4-0.9c4.3-4.4,8.7-8.7,13-13c0.6-0.6,1-0.6,1.5,0c1.1,1.1,2.3,2.3,3.4,3.4
				C46,30.1,46,30.3,46,30.5z M38.4,31.5c-0.1,0-0.1,0.1-0.2,0.1c-2.9,2.9-5.8,5.8-8.7,8.7c-0.1,0.1-0.3,0.4-0.3,0.6
				c0,0.6,0,1.2,0,1.8c1.1,0,2.1,0.2,3.1-0.8c2.5-2.7,5.2-5.2,7.8-7.9c0.2-0.2,0.3-0.3,0.4-0.4C39.8,32.9,39.1,32.2,38.4,31.5z
				 M39.6,30.1c0.8,0.8,1.5,1.5,2.2,2.1c0.7-0.7,1.4-1.4,2-2c-0.6-0.7-1.3-1.4-2-2.2c-0.5,0.5-1,1.1-1.5,1.6
				C40,29.8,39.8,30,39.6,30.1z"/>
			<path class="st7" d="M25.9,19.3c0-0.8,0-1.4,0-2.1c0-0.2-0.2-0.4-0.4-0.5c-0.5-0.3-1.1-0.4-1.7-0.7c-1.5-0.9-1.7-2.8-0.3-3.9
				c0.7-0.5,1.5-0.8,2.4-1.2c0-0.1,0-0.4,0-0.7c0-0.5,0.3-0.8,0.9-0.8c0.5,0,0.8,0.3,0.8,0.8c-0.1,0.8,0.3,0.9,0.9,1.1
				c1,0.3,1.9,0.9,2.3,1.9c0.2,0.7,0.1,1.2-0.4,1.3c-0.5,0.2-0.9-0.1-1.1-0.7c-0.2-0.5-0.6-0.8-1.7-1.1c0,0.8,0,1.6,0,2.3
				c0,0.1,0.3,0.2,0.4,0.3c0.5,0.2,1.1,0.4,1.6,0.6c1.6,0.9,1.7,2.8,0.3,3.9c-0.5,0.4-1.2,0.7-1.9,0.9c-0.3,0.1-0.5,0.2-0.5,0.6
				c0,0.2,0.1,0.4,0,0.5c-0.2,0.3-0.5,0.6-0.8,0.7c-0.4,0.1-0.7-0.2-0.8-0.7c0-0.1,0-0.3,0-0.5c0-0.4-0.1-0.6-0.5-0.7
				c-1-0.2-1.9-0.6-2.4-1.5c-0.2-0.3-0.3-0.6-0.4-0.9c-0.1-0.5,0.1-0.8,0.6-1c0.5-0.1,0.9,0.1,1,0.5C24.5,18.9,25.1,19.1,25.9,19.3z
				 M27.7,19.2c1-0.2,1.6-0.7,1.6-1.2c0-0.5-0.7-0.8-1.6-1C27.7,17.8,27.7,18.5,27.7,19.2z M25.9,12.8c-1,0.2-1.6,0.6-1.6,1.1
				c0,0.5,0.7,0.9,1.6,1C25.9,14.3,25.9,13.6,25.9,12.8z"/>
			<path class="st7" d="M19.3,27.7c2.9,0,5.8,0,8.7,0c0.2,0,0.4,0,0.5,0c0.5,0.1,0.8,0.3,0.8,0.8c0,0.5-0.3,0.8-0.8,0.8
				c-0.2,0-0.4,0-0.6,0c-5.8,0-11.6,0-17.4,0c-0.2,0-0.5,0.1-0.6,0c-0.3-0.2-0.6-0.5-0.6-0.8c-0.1-0.4,0.2-0.7,0.7-0.8
				c0.3,0,0.5,0,0.8,0C13.6,27.7,16.4,27.7,19.3,27.7z"/>
			<path class="st7" d="M14.3,22.7c-1.3,0-2.6,0-3.9,0c-0.7,0-1.1-0.3-1.1-0.8c0-0.5,0.4-0.8,1.1-0.8c2.6,0,5.3,0,7.9,0
				c0.5,0,0.9,0.2,1,0.6c0,0.3-0.1,0.6-0.3,0.9c-0.1,0.2-0.5,0.2-0.7,0.2C16.9,22.7,15.6,22.7,14.3,22.7z"/>
			<path class="st7" d="M13.4,36.1c-1,0-2,0-3.1,0c-0.7,0-1.1-0.3-1.1-0.8c0-0.5,0.4-0.8,1.1-0.8c2.1,0,4.1,0,6.2,0
				c0.7,0,1.1,0.3,1,0.8c0,0.6-0.4,0.8-1,0.8C15.5,36.1,14.5,36.1,13.4,36.1z"/>
		</g>
	</g>
</g>
</svg>
