<?xml version="1.0" encoding="utf-8"?>
<!-- Generator: Adobe Illustrator 21.1.0, SVG Export Plug-In . SVG Version: 6.00 Build 0)  -->
<svg version="1.1" xmlns="http://www.w3.org/2000/svg" xmlns:xlink="http://www.w3.org/1999/xlink" x="0px" y="0px"
	 viewBox="0 0 50 50" style="enable-background:new 0 0 50 50;" xml:space="preserve">
<style type="text/css">
	.st0{display:none;}
	.st1{display:inline;}
	.st2{fill:none;stroke:#008BD5;stroke-width:2.5823;stroke-miterlimit:10;}
	.st3{fill:#FBB03B;}
	.st4{fill:none;stroke:#CCCCCC;stroke-width:2.3869;stroke-miterlimit:10;}
	.st5{fill:#008BD5;}
</style>
<g id="Layer_1" class="st0">
	<g class="st1">
		<circle class="st2" cx="26.4" cy="25.6" r="28.4"/>
		<g>
			<line class="st2" x1="38" y1="14" x2="14.8" y2="37.2"/>
			<line class="st2" x1="14.8" y1="14" x2="38" y2="37.2"/>
		</g>
	</g>
</g>
<g id="Layer_2">
	<polygon class="st3" points="91,1 98.7,16.7 116,19.2 103.5,31.4 106.5,48.6 91,40.4 75.5,48.6 78.5,31.4 66,19.2 83.3,16.7 	"/>
	<polygon class="st4" points="91.5,-43.4 98.5,-29.3 114,-27.1 102.8,-16.1 105.4,-0.6 91.5,-7.9 77.6,-0.6 80.2,-16.1 69,-27.1 
		84.5,-29.3 	"/>
	<polygon class="st5" points="41.4,17.5 36.8,13 21.9,27.9 14.6,20.6 10.1,25.2 21.9,37 22.1,36.8 22.1,36.8 	"/>
</g>
</svg>
