<?xml version="1.0" encoding="utf-8"?>
<!-- Generator: Adobe Illustrator 21.1.0, SVG Export Plug-In . SVG Version: 6.00 Build 0)  -->
<svg version="1.1" id="Layer_1" xmlns="http://www.w3.org/2000/svg" xmlns:xlink="http://www.w3.org/1999/xlink" x="0px" y="0px"
	 viewBox="0 0 50 50" style="enable-background:new 0 0 50 50;" xml:space="preserve">
<style type="text/css">
	.st0{fill:#B4B4B4;}
	.st1{fill:#FFFFFF;}
</style>
<g>
	<ellipse transform="matrix(0.7071 -0.7071 0.7071 0.7071 -10.2397 25.2086)" class="st0" cx="25.3" cy="25" rx="7.8" ry="7.8"/>
	<g>
		<g>
			
				<rect x="21.3" y="23.9" transform="matrix(0.7071 -0.7071 0.7071 0.7071 -10.1754 25.2763)" class="st1" width="8.3" height="1.9"/>
			
				<rect x="24.4" y="20.8" transform="matrix(0.7071 -0.7071 0.7071 0.7071 -10.1754 25.2763)" class="st1" width="1.9" height="8.3"/>
		</g>
	</g>
</g>
</svg>
