{
    "quote": {
        "Today": 10,
        "Yesterday": 110,
        "Monthtodate": 1000
    },
    "sales": {
        "Today": 20,
        "Yesterday": 210,
        "Monthtodate": 3300
    }
}



 